<?xml version="1.0" encoding="utf-8"?>
<!-- Generator: Adobe Illustrator 17.0.1, SVG Export Plug-In . SVG Version: 6.00 Build 0)  -->
<!DOCTYPE svg PUBLIC "-//W3C//DTD SVG 1.1//EN" "http://www.w3.org/Graphics/SVG/1.1/DTD/svg11.dtd">
<svg version="1.1" id="Layer_1" xmlns="http://www.w3.org/2000/svg" xmlns:xlink="http://www.w3.org/1999/xlink" x="0px" y="0px"
	 width="139.621px" height="92.3px" viewBox="0 0 139.621 92.3" enable-background="new 0 0 139.621 92.3" xml:space="preserve">
<g>
	<path fill="#004023" d="M69.81,0C42.387,0,17.627,9.339,0,24.343v32.058c17.627,15.006,42.387,24.344,69.81,24.344
		c27.425,0,52.185-9.338,69.811-24.344V24.343C121.995,9.339,97.235,0,69.81,0"/>
	<path fill="#FFFFFF" d="M66.762,39.007c-1.123-1.409-2.317-2.635-2.468-2.707s-0.562,0-0.562,0
		c-1.067,0.412-7.076,2.746-7.464,2.839c-0.273,0.156-0.998,0.571-1.02,0.76c-0.05,0.441,1.166,0.494,1.166,0.983v10.482
		c0,0,0.934,0.649,1.756,1.116c0.825,0.47,2.683,1.645,2.683,1.645s1.232-0.433,3.441-1.662c2.206-1.225,4.002-2.416,4.002-2.416
		v-0.978c0,0-3.841,2.075-4.103,2.181c-0.263,0.111-1.081,0.007-1.641-0.461c-0.56-0.469-1.81-1.752-2.036-2.041
		c-0.224-0.289-0.224-0.94,0.3-1.445c0.523-0.505,1.495-1.226,3.179-2.128c1.683-0.901,4.45-2.598,4.637-2.743
		c0.187-0.143,0.224-0.395,0.112-0.612S67.884,40.414,66.762,39.007 M60.367,46.041v-7.179l1.486-0.559l3.554,4.833L60.367,46.041z
		 M56.29,39.114c-0.062,0.031-0.056,0.034-0.022,0.025C56.383,39.074,56.425,39.05,56.29,39.114 M89.133,38.199
		c-0.911-1.274-1.479-1.74-2.218-1.709c-0.739,0.027-1.428,0.273-1.941,0.766c-0.511,0.491-1.752,1.521-1.951,1.725
		c-0.197,0.204-0.368,0.32-0.368,0.32v0.898c0,0,1.419-1.123,1.747-1.301c0.409-0.223,1.238-0.363,1.693-0.336
		c0.453,0.03,1.163,0.363,1.503,0.796c0.34,0.435,0.624,1.042,0.624,1.651c0,0.608-0.198,1.015-0.309,1.305
		c-0.115,0.291-1.601,3.597-2.31,5.154c-0.274,0.603-0.518,1.031-0.737,1.45c-0.174,0.332-0.602,0.917-0.602,0.917
		s-1.535-2.64-2.673-5.105c-1.138-2.463-2.427-5.589-3.364-6.865c-0.939-1.277-1.763-1.592-2.52-1.578
		c-0.801,0.014-1.494,0.45-2.525,1.196c-1.177,0.85-2.422,2.214-2.422,2.214v0.765c0,0,0.678-0.526,1.275-0.818
		c0.598-0.289,1.183-0.462,1.637-0.434c0.455,0.029,1.108,0.348,1.478,0.987c0.369,0.636,1.255,2.378,2.221,4.465
		c0.964,2.085,3.863,7.416,4.402,8.284c0.54,0.871,0.967,1.479,0.967,1.479s2.672-3.651,4.803-7.156
		c2.13-3.506,2.895-5.245,2.954-5.419c0.056-0.173,0.112-0.521,0-0.868C90.383,40.633,90.042,39.474,89.133,38.199 M109.942,51.297
		c-0.961-0.432-1.104-1.01-1.104-1.636v-8.162c0-0.384,0.385-1.242,1.299-1.724c0.914-0.481,1.152-0.537,1.152-0.537v-0.963
		c0,0-1.673-0.351-2.836-0.913c-1.191-0.578-1.712-1.026-1.883-1.019c-0.152,0.006-0.61,0.409-1.079,0.748
		c-0.557,0.401-1.133,0.905-3.08,1.665c-1.294,0.506-2.041,0.698-2.629,0.746c0.243-0.334,0.391-0.741,0.391-1.184
		c0-1.118-0.904-2.021-2.021-2.021c-1.117,0-2.022,0.903-2.022,2.021c0,0.434,0.14,0.834,0.374,1.164
		c0.324,0.491,1.001,1.169,1.001,1.169s1.362,0.074,3.512-0.433c1.443-0.338,2.318-0.784,2.318-0.784s0.453,0.55,0.792,0.789
		c0.336,0.241,1.01,0.723,1.01,0.723s0.021,7.513,0.021,7.802c0,0.289-0.192,0.721-0.719,1.058c-0.531,0.337-2.893,1.78-3.13,1.926
		c-0.247,0.142-0.63,0.238-1.401-0.146c-0.768-0.385-2.018-1.299-2.164-2.741c-0.145-1.445,0.787-2.611,1.638-3.031
		c1.05-0.523,2.261-0.964,2.261-0.964v-0.961c0,0-0.818,0.095-3.321,1.251c-2.502,1.154-3.898,2.835-3.945,4.858
		c-0.049,2.021,0.867,3.127,2.597,3.945c1.734,0.818,2.119,0.143,2.408,0c0.289-0.144,5.631-3.271,5.631-3.271
		s0.075,0.962,0.075,1.25c0,0.29,0.351,0.795,0.578,1.06c0.482,0.557,0.904,0.946,1.192,1.138c0.285,0.193,0.933,0.481,1.702,0
		c0.77-0.479,2.971-2.053,2.971-2.053v-1.202C111.531,50.865,110.905,51.732,109.942,51.297 M123.506,50.884
		c-1.257,0.483-1.691-0.289-1.691-1.638V25.33c0,0,1.46-0.144,3.051-1.108c1.593-0.963,2.364-2.503,2.364-2.503l-4.775,0.046
		c-0.676,0-2.117,0.425-2.7,1.207c-0.723,0.964-1.786,2.069-1.786,3.994v24.737c0,1.155,0.771,2.071,1.302,2.408
		c0.531,0.337,1.349,0.77,2.314,0.144c0.965-0.625,2.992-2.407,3.523-2.938c0.532-0.528,0.915-0.963,0.915-0.963v-1.348
		C126.023,49.006,124.759,50.403,123.506,50.884 M13.772,33.002l0.732-0.523c0,0-0.419-0.522-0.628-0.887
		c-0.208-0.367-0.73-1.464,0.366-3.084c1.098-1.619,3.867-1.254,6.74-0.365c2.874,0.888,4.755,1.514,7.733,0.731
		c2.979-0.783,5.174-3.031,5.174-3.031l-0.68-0.574c0,0-1.515,1.097-2.821,1.254c-1.307,0.157-2.978-0.471-6.009-1.464
		c-3.03-0.992-6.323-0.523-8.36,0.418c-2.038,0.941-3.501,2.614-3.554,4.494C12.414,31.852,13.772,33.002,13.772,33.002
		 M21.714,48.157c-0.353,0.314-1.332,0.744-1.332,0.744v0.981c0,0,0.509-0.157,0.94-0.313c0.431-0.157,1.92-0.745,3.369-1.608
		c1.451-0.861,2.118-1.998,2.118-2.821V34.06c0-0.625,0.195-1.606,0.705-2.116c0.509-0.509,1.254-0.863,1.254-0.863v-0.704
		c0,0-0.941,0.117-2.077,0.509c-1.138,0.391-2.744,1.372-3.331,1.92c-0.588,0.55-1.215,1.49-1.215,2.038v2.704h-1.164
		c-0.667,0-2.194,0.353-3.213,1.254c-1.019,0.902-1.057,2.077-1.057,2.469v1.215h1.057c0,0,0.176-0.753,0.482-1.244
		c0.29-0.462,0.909-0.911,1.477-0.911h2.456v6.887C22.183,47.492,22.067,47.844,21.714,48.157 M49.733,49.793v-8.17
		c0-0.235-0.078-0.705-0.587-1.254c-0.51-0.548-1.961-1.372-3.449-1.802c-1.488-0.431-2.861-0.589-2.861-0.589v-0.194
		c0,0,0.431-0.236,0.979-0.472c0.549-0.235,2.822-1.451,4.271-2.9c1.451-1.45,2.666-4.506,1.255-7.013
		c-1.411-2.51-4.859-3.136-7.603-2.744c-2.743,0.392-5.642,1.921-8.307,3.801c-2.665,1.881-3.879,3.763-3.879,3.763v13.088
		c0,0.55-0.313,1.333-0.785,1.881c-0.469,0.549-1.293,0.745-1.293,0.745v0.979c0,0,0.903-0.274,1.881-0.666
		c0.98-0.391,2.94-1.371,3.683-1.998c0.746-0.628,1.138-1.777,1.138-2.431V30.572c0,0,0.039-0.392,0.274-0.706
		c0.236-0.313,0.94-1.41,2.625-2.428c1.685-1.019,3.606-1.53,5.37-1.333c1.764,0.196,2.429,1.449,2.469,4.232
		c0.038,2.782-0.705,4.937-2.431,6.506c-1.723,1.567-4.623,1.802-4.623,1.802v1.45c0,0,0.818-0.182,1.997-0.392
		c2.593-0.46,4.492-0.047,5.178,1.748c0.54,1.415,0.664,5.998-2.709,8.08c-1.083,0.67-5.211,2.633-5.211,2.633
		s-4.401-1.789-7.813-1.982c-6.259-0.357-11.276,1.049-14.295,2.691c-3.185,1.733-4.79,4.319-3.449,7.001
		c1.46,2.916,5.809,4.191,10.244,4.317c3.486,0.099,7.841-0.624,7.841-0.624l-0.532-1.064c0,0-3.864,1.093-8.37,0.826
		c-4.782-0.285-8.251-2.641-8.433-4.8c-0.202-2.401,2.38-4.073,4.851-4.982c3.072-1.131,7.892-1.383,11.386-0.661
		c3.043,0.627,4.289,1.631,4.289,1.631h1.938c0,0,1.876-0.921,3.804-1.626c1.73-0.633,4.162-1.201,6.868-1.281
		c2.703-0.076,5.039,0.273,5.039,0.273l0.55-0.893c0,0-0.468-0.178-0.703-0.334C50.094,50.499,49.733,50.185,49.733,49.793
		 M58.181,15.201h-0.274L57.86,15.39c-0.124,0.502-0.228,0.72-1.1,0.72h-0.852c-0.787,0-0.91-0.161-0.91-1.108v-1.261h0.522
		c0.946,0,1.098,0.114,1.098,0.911h0.275v-2.246h-0.275c0,0.786-0.152,0.909-1.098,0.909h-0.522v-2.036h1.449
		c0.872,0,0.967,0.217,1.099,0.719l0.049,0.19h0.274l-0.076-1.336h-4.879v0.275c0.787,0,0.9,0.161,0.9,1.108v2.918
		c0,0.948-0.113,1.109-0.9,1.109v0.275h5.192L58.181,15.201z M59.408,16.404c0.132,0,0.511,0.293,1.023,0.293
		c0.617,0,1.289-0.313,1.289-1.071c0-0.368-0.256-0.748-0.74-0.966l-0.454-0.217c-0.464-0.21-0.653-0.304-0.653-0.521
		c0-0.2,0.208-0.322,0.464-0.322c0.398,0,0.871,0.322,0.871,0.719h0.275V13.22h-0.275c0,0.124-0.028,0.171-0.095,0.171
		c-0.199,0-0.435-0.171-0.928-0.171c-0.483,0-1.117,0.237-1.117,0.948c0,0.349,0.217,0.739,0.71,0.966l0.53,0.236
		c0.389,0.191,0.606,0.332,0.606,0.56c0,0.217-0.189,0.37-0.502,0.37c-0.615,0-1.146-0.56-1.146-0.987h-0.275v1.384h0.275
		C59.266,16.459,59.305,16.404,59.408,16.404 M62.83,15.513c0,0.73,0.418,1.155,1.11,1.155c0.322,0,0.862-0.256,1.165-0.54
		l-0.133-0.273c-0.265,0.188-0.465,0.273-0.644,0.273c-0.294,0-0.426-0.237-0.426-0.682v-1.648h0.824v-0.417h-0.824v-1.193h-0.323
		c-0.057,0.615-0.673,1.175-1.241,1.297v0.313h0.492V15.513z M66.353,16.612c0.341,0,0.606-0.264,0.606-0.606
		c0-0.342-0.265-0.606-0.606-0.606c-0.343,0-0.597,0.264-0.597,0.606C65.756,16.348,66.01,16.612,66.353,16.612 M72.482,16.262
		c-0.785,0-0.909-0.161-0.909-1.108v-1.346c0-0.947,0.124-1.098,0.909-1.098v-0.276h-2.879v0.276c0.787,0,0.909,0.151,0.909,1.098
		v1.346c0,0.947-0.122,1.108-0.909,1.108v0.275h2.879V16.262z M75.372,15.826c0.275,0,0.587-0.067,0.815-0.256
		c-0.037,1.175-0.294,2.274-1.156,2.274c-0.816,0-0.863-0.796-1.269-0.54c-0.427,0.265,0.285,1.004,1.28,1.004
		c1.457,0,2.254-1.743,2.254-3.364c0-2.197-1.28-2.67-1.999-2.67c-1.052,0-1.914,0.794-1.914,1.771
		C73.383,15.03,74.329,15.826,75.372,15.826 M75.297,12.728c0.36,0,0.89,0.323,0.89,2.33c-0.142,0.219-0.503,0.313-0.815,0.313
		c-0.493,0-0.806-0.407-0.806-1.317C74.566,13.315,74.736,12.728,75.297,12.728 M79.919,18.308c1.166,0,1.99-0.891,1.99-1.98
		c0-1.09-0.806-1.971-1.905-1.971c-0.39,0-0.806,0.171-0.995,0.493l0.151-1.355h2.407l0.227-1.781H81.53
		c-0.123,0.512-0.228,0.719-1.09,0.719h-1.639l-0.294,3.251h0.426c0.236-0.721,0.503-0.853,0.91-0.853
		c0.502,0,0.88,0.597,0.88,1.497c0,0.899-0.378,1.544-0.88,1.544c-0.976,0-0.663-0.928-1.203-0.928
		c-0.161,0-0.265,0.132-0.265,0.274C78.375,17.616,78.942,18.308,79.919,18.308 M84.541,18.308c1.166,0,1.99-0.891,1.99-1.98
		c0-1.09-0.805-1.971-1.905-1.971c-0.387,0-0.805,0.171-0.994,0.493l0.152-1.355h2.407l0.226-1.781h-0.265
		c-0.123,0.512-0.226,0.719-1.089,0.719h-1.639l-0.293,3.251h0.425c0.237-0.721,0.502-0.853,0.909-0.853
		c0.503,0,0.881,0.597,0.881,1.497c0,0.899-0.378,1.544-0.881,1.544c-0.975,0-0.662-0.928-1.202-0.928
		c-0.162,0-0.266,0.132-0.266,0.274C82.997,17.616,83.566,18.308,84.541,18.308"/>
	<path fill="#004023" d="M15.568,75.446c-0.505,1.079,0.202,2.019,0.729,2.708c0.551,0.737,0.907,1.333,0.581,2.03
		c-0.327,0.695-0.969,0.945-1.685,0.609c-1-0.468-0.988-1.693-0.86-2.374l-0.341-0.064c-0.175,0.527-0.437,1.421-0.46,1.674
		c0.085,0.098,0.195,0.246,0.413,0.443c0.209,0.193,0.501,0.414,0.893,0.598c1.333,0.623,2.605,0.203,3.096-0.847
		c0.506-1.079-0.157-1.962-0.779-2.754c-0.606-0.775-0.901-1.319-0.579-2.005c0.252-0.539,0.848-0.894,1.564-0.559
		c0.833,0.391,0.792,1.22,0.679,1.92l0.322,0.08c0.211-0.656,0.335-1.076,0.461-1.447c-0.283-0.264-0.654-0.593-1.145-0.822
		C17.173,74.034,16.018,74.486,15.568,75.446 M26.911,84.184c-0.024-1.997-0.025-4.157-0.033-6.138l-0.393-0.024l-3.996,4.576
		c-0.677,0.77-0.835,0.794-1.53,0.649l-0.105,0.297l2.233,0.796l0.105-0.297c-0.736-0.354-0.77-0.481-0.346-1.031
		c0.282-0.372,0.574-0.739,0.883-1.122l2.142,0.763c0.004,0.667,0.012,1.255-0.004,1.687c-0.013,0.456-0.127,0.519-0.788,0.376
		l-0.106,0.294l2.581,0.919l0.105-0.295C27.022,85.327,26.915,85.173,26.911,84.184 M25.877,82.15l-1.825-0.651
		c0.599-0.716,1.211-1.464,1.828-2.197l0.031,0.01L25.877,82.15z M36.171,81.026l-2.982-0.751l-0.079,0.316
		c0.782,0.263,0.853,0.338,0.628,1.229l-1.054,4.179c-0.225,0.892-0.325,0.935-1.233,0.772l-0.078,0.304l2.521,0.636
		c1.291,0.327,2.42,0.32,3.359-0.079c0.951-0.408,1.681-1.218,1.998-2.478c0.249-0.988,0.065-1.849-0.325-2.472
		C38.423,81.885,37.506,81.364,36.171,81.026 M38.088,85.028c-0.434,1.722-1.71,2.885-3.579,2.414
		c-0.755-0.19-1.018-0.479-0.82-1.267l1.091-4.326c0.1-0.399,0.175-0.516,0.288-0.563c0.124-0.047,0.391-0.047,0.833,0.063
		c0.703,0.179,1.264,0.476,1.644,0.917C38.2,82.947,38.358,83.958,38.088,85.028 M46.628,83.234l-3.034-0.495l-0.052,0.319
		c0.8,0.197,0.877,0.265,0.729,1.172l-0.694,4.253c-0.148,0.907-0.244,0.958-1.162,0.875l-0.051,0.308l2.565,0.419
		c1.314,0.214,2.437,0.113,3.338-0.365c0.913-0.488,1.571-1.356,1.78-2.638c0.163-1.005-0.093-1.847-0.535-2.434
		C48.943,83.897,47.985,83.455,46.628,83.234 M48.878,87.055c-0.286,1.753-1.458,3.02-3.36,2.71
		c-0.769-0.126-1.054-0.392-0.924-1.193l0.718-4.401c0.067-0.407,0.13-0.528,0.239-0.587c0.119-0.058,0.386-0.08,0.834-0.006
		c0.715,0.116,1.3,0.365,1.716,0.773C48.812,84.971,49.055,85.966,48.878,87.055 M57.988,90.986
		c-0.274,0.256-0.645,0.276-1.216,0.224c-0.432-0.039-0.786-0.083-0.98-0.219c-0.195-0.127-0.23-0.336-0.178-0.908l0.387-4.245
		c0.085-0.927,0.198-0.971,1.044-0.958l0.028-0.313l-2.898-0.265l-0.029,0.312c0.867,0.156,0.937,0.216,0.853,1.133l-0.39,4.278
		c-0.084,0.915-0.187,0.982-1.098,0.964l-0.029,0.313l4.946,0.45c0.126-0.313,0.447-1.326,0.544-1.677l-0.327-0.107
		C58.426,90.46,58.201,90.788,57.988,90.986 M67.345,91.405c-0.246,0.264-0.562,0.34-1.341,0.318
		c-0.518-0.016-0.898-0.026-1.099-0.161c-0.191-0.136-0.249-0.387-0.234-0.896l0.059-2l0.974,0.029
		c0.94,0.027,1.025,0.094,1.142,0.867l0.325,0.009l0.061-2.088l-0.324-0.009c-0.151,0.721-0.23,0.805-1.192,0.776l-0.974-0.027
		l0.072-2.433c0.008-0.325,0.041-0.357,0.389-0.346l0.766,0.022c0.748,0.021,1.037,0.106,1.192,0.348
		c0.134,0.221,0.246,0.483,0.33,0.93l0.337-0.044c-0.026-0.574-0.06-1.311-0.052-1.572l-4.866-0.141L62.901,85.3
		c0.82,0.1,0.916,0.147,0.887,1.108l-0.124,4.273c-0.026,0.887-0.125,0.97-1.101,1.017l-0.009,0.314l5.277,0.154
		c0.097-0.333,0.353-1.332,0.418-1.709l-0.323-0.064C67.752,90.821,67.546,91.184,67.345,91.405 M76.892,90.168
		c-0.341-0.475-0.808-1.185-1.004-1.525c0.779-0.373,1.343-0.955,1.311-1.886c-0.023-0.659-0.32-1.124-0.773-1.392
		c-0.42-0.267-0.953-0.345-1.774-0.318l-2.747,0.093l0.009,0.314c0.836,0.047,0.935,0.098,0.966,1.007l0.146,4.315
		c0.031,0.908-0.063,0.987-0.937,1.082l0.01,0.314l2.92-0.1l-0.011-0.313c-0.856-0.036-0.956-0.109-0.987-1.017l-0.058-1.697
		l0.314-0.012c0.52-0.017,0.708,0.106,0.912,0.413c0.332,0.52,0.734,1.166,1.108,1.663c0.51,0.686,0.951,0.92,1.871,0.932
		c0.13,0.006,0.25,0.003,0.368-0.001l0.034-0.294c-0.239-0.057-0.483-0.178-0.774-0.472C77.539,91.012,77.3,90.728,76.892,90.168
		 M74.427,88.661l-0.476,0.015l-0.09-2.66c-0.01-0.281,0.018-0.402,0.093-0.469c0.084-0.067,0.256-0.117,0.569-0.127
		c0.779-0.027,1.539,0.38,1.579,1.548c0.019,0.574-0.138,1.012-0.529,1.35C75.31,88.543,74.956,88.643,74.427,88.661 M84.937,84.33
		l0.031,0.313c0.84,0.014,0.88,0.108,0.696,0.648c-0.225,0.686-0.704,1.79-1.01,2.529c-0.545-0.763-1.137-1.585-1.663-2.381
		c-0.231-0.348-0.275-0.462,0.479-0.648l-0.031-0.312l-2.672,0.267l0.031,0.313c0.642,0.001,0.783,0.106,1.287,0.797
		c0.695,0.963,1.165,1.635,1.584,2.246c0.203,0.284,0.257,0.388,0.28,0.615l0.138,1.389c0.092,0.917,0.001,1.002-0.94,1.16
		l0.032,0.312l3.124-0.31l-0.03-0.313c-0.989,0.033-1.082-0.033-1.172-0.95l-0.146-1.454c-0.027-0.281-0.009-0.413,0.103-0.707
		c0.423-1.011,0.719-1.639,1.117-2.452c0.345-0.686,0.472-0.83,1.196-0.989l-0.031-0.312L84.937,84.33z M101.512,86.912
		c-0.065,0.533-0.185,0.912-0.332,1.164c-0.185,0.326-0.535,0.455-1.095,0.572c-0.425,0.088-0.777,0.151-1.002,0.076
		c-0.223-0.063-0.319-0.254-0.436-0.815l-0.873-4.174c-0.191-0.91-0.096-0.985,0.717-1.221l-0.065-0.307l-2.849,0.596l0.065,0.307
		c0.873-0.106,0.958-0.068,1.147,0.832l0.879,4.205c0.189,0.901,0.109,0.994-0.767,1.244l0.063,0.306l4.863-1.016
		c0.029-0.338,0.037-1.401,0.029-1.764L101.512,86.912z M108.279,85.606l-1.442-5.096l0.688-0.195
		c0.761-0.215,0.962-0.182,1.203-0.003c0.187,0.139,0.366,0.381,0.626,0.859l0.303-0.12c-0.226-0.6-0.501-1.378-0.634-1.847
		l-0.229,0.066c-0.101,0.242-0.177,0.331-0.459,0.411l-4.137,1.171c-0.291,0.082-0.434,0.1-0.647-0.099l-0.218,0.061
		c0.138,0.57,0.272,1.286,0.415,1.944l0.322-0.092c-0.018-0.502,0-0.834,0.075-1.046c0.071-0.268,0.253-0.42,1.118-0.665
		l0.595-0.168l1.442,5.096c0.235,0.835,0.181,0.962-0.738,1.289l0.084,0.303l3.065-0.868l-0.085-0.301
		C108.628,86.52,108.515,86.439,108.279,85.606 M118.608,76.996c-0.872-0.359-1.922-0.253-3.204,0.245l-2.865,1.112l0.117,0.305
		c0.789-0.239,0.89-0.219,1.224,0.639l1.56,4.017c0.333,0.858,0.275,0.95-0.559,1.344l0.114,0.292l2.422-0.941
		c1.242-0.482,2.159-1.14,2.693-2.01c0.538-0.884,0.665-1.965,0.195-3.177C119.936,77.873,119.286,77.278,118.608,76.996
		 M117.763,83.434c-0.726,0.282-1.108,0.198-1.403-0.559l-1.614-4.159c-0.148-0.383-0.155-0.519-0.092-0.626
		c0.074-0.11,0.292-0.264,0.717-0.429c0.675-0.262,1.305-0.345,1.871-0.204c0.928,0.173,1.642,0.907,2.041,1.937
		C119.925,81.048,119.559,82.736,117.763,83.434 M126.457,79.489c-0.167-0.34-0.534-0.473-0.864-0.312
		c-0.331,0.163-0.45,0.535-0.283,0.875c0.177,0.359,0.534,0.473,0.854,0.316l0.011-0.006
		C126.505,80.201,126.633,79.848,126.457,79.489"/>
	<path fill="#004023" d="M71.978,92.3l-0.018-0.553l0.115-0.013c0.824-0.09,0.854-0.125,0.825-0.954l-0.146-4.316
		c-0.028-0.839-0.074-0.842-0.848-0.885l-0.115-0.007l-0.016-0.553l2.873-0.098c0.884-0.023,1.421,0.07,1.844,0.338
		c0.52,0.309,0.809,0.826,0.831,1.495c0.03,0.835-0.394,1.489-1.259,1.941c0.218,0.363,0.625,0.976,0.929,1.399
		c0.378,0.52,0.62,0.817,0.891,1.092c0.24,0.243,0.461,0.378,0.714,0.438l0.108,0.026l-0.059,0.511l-0.108,0.004
		c-0.12,0.004-0.242,0.006-0.378,0.001c-0.942-0.012-1.421-0.251-1.966-0.983c-0.329-0.438-0.678-0.988-0.986-1.472l-0.126-0.198
		c-0.183-0.275-0.331-0.369-0.803-0.355l-0.189,0.007l0.055,1.573c0.028,0.829,0.06,0.862,0.867,0.896l0.116,0.005l0.019,0.554
		L71.978,92.3z M72.218,91.969l0.002,0.074l2.67-0.092l-0.003-0.072c-0.835-0.047-0.96-0.213-0.991-1.133l-0.063-1.822l0.439-0.016
		c0.525-0.013,0.773,0.097,1.021,0.469l0.127,0.2c0.306,0.48,0.651,1.025,0.976,1.457c0.496,0.665,0.91,0.871,1.773,0.882
		c0.089,0.002,0.173,0.003,0.255,0.002l0.009-0.08c-0.257-0.082-0.485-0.232-0.727-0.476c-0.281-0.286-0.529-0.59-0.915-1.121H76.79
		c-0.343-0.478-0.815-1.195-1.011-1.535l-0.067-0.118l0.122-0.057c0.86-0.413,1.267-0.991,1.239-1.77
		c-0.019-0.578-0.265-1.024-0.711-1.289c-0.38-0.24-0.874-0.326-1.707-0.301l-2.622,0.09l0.002,0.075
		c0.789,0.052,0.938,0.175,0.969,1.121l0.146,4.315C73.182,91.692,73.066,91.865,72.218,91.969 M67.923,92.295l-5.498-0.162
		l0.016-0.554l0.116-0.006c0.922-0.044,0.958-0.077,0.981-0.896l0.124-4.273c0.028-0.882-0.003-0.886-0.776-0.98l-0.113-0.013
		l0.015-0.553l5.116,0.149L67.9,85.132c-0.006,0.239,0.023,0.906,0.046,1.442l0.011,0.236l-0.567,0.072l-0.023-0.115
		c-0.089-0.472-0.208-0.715-0.313-0.888c-0.11-0.169-0.316-0.266-1.09-0.288l-0.766-0.022c-0.142-0.004-0.219,0.001-0.234,0.016
		c-0.01,0.008-0.022,0.052-0.025,0.209l-0.069,2.308l0.849,0.024c0.912,0.021,0.93-0.026,1.066-0.677l0.022-0.103l0.553,0.016
		l-0.069,2.337l-0.553-0.015l-0.016-0.103c-0.103-0.679-0.112-0.735-1.023-0.761l-0.848-0.024l-0.056,1.875
		c-0.016,0.539,0.058,0.702,0.182,0.79c0.168,0.111,0.544,0.123,1.021,0.137c0.746,0.017,1.036-0.044,1.254-0.277
		c0.188-0.207,0.386-0.553,0.557-0.975l0.039-0.095l0.544,0.108l-0.021,0.12c-0.064,0.375-0.318,1.368-0.421,1.723L67.923,92.295z
		 M62.683,91.891l5.053,0.148c0.096-0.346,0.287-1.087,0.367-1.483l-0.102-0.02c-0.173,0.405-0.372,0.741-0.563,0.953l-0.001,0.001
		c-0.274,0.295-0.618,0.379-1.438,0.358c-0.546-0.016-0.934-0.028-1.164-0.182c-0.261-0.185-0.304-0.521-0.29-1.003l0.063-2.125
		l1.099,0.032c0.951,0.027,1.122,0.129,1.246,0.87l0.096,0.003l0.054-1.839l-0.096-0.002c-0.161,0.713-0.328,0.805-1.296,0.774
		l-1.099-0.032l0.077-2.557c0.003-0.171,0.013-0.299,0.103-0.384c0.093-0.088,0.23-0.092,0.414-0.084l0.766,0.022
		c0.698,0.02,1.09,0.087,1.294,0.406c0.151,0.249,0.25,0.51,0.324,0.858l0.107-0.019c-0.022-0.491-0.046-1.036-0.047-1.336
		l-4.62-0.134l-0.002,0.075c0.776,0.103,0.914,0.238,0.884,1.221l-0.124,4.273c-0.026,0.913-0.164,1.075-1.103,1.132L62.683,91.891z
		 M58.509,91.885l-0.093-0.008l-5.07-0.461l0.052-0.553l0.115,0.002c0.854,0.017,0.894-0.016,0.971-0.852l0.39-4.278
		c0.077-0.848,0.062-0.851-0.751-0.997l-0.112-0.021l0.051-0.55l3.146,0.287l-0.049,0.552l-0.116-0.001
		c-0.788-0.006-0.84-0.011-0.918,0.844l-0.388,4.246c-0.051,0.576-0.004,0.709,0.122,0.791c0.174,0.122,0.521,0.162,0.924,0.201
		c0.541,0.046,0.88,0.034,1.118-0.192l0.001-0.001c0.219-0.203,0.43-0.532,0.628-0.976l0.046-0.104l0.548,0.181l-0.032,0.114
		c-0.096,0.343-0.416,1.362-0.548,1.69L58.509,91.885z M53.617,91.189l4.728,0.431c0.123-0.334,0.359-1.073,0.473-1.463
		l-0.106-0.035c-0.198,0.424-0.413,0.745-0.639,0.955c-0.307,0.289-0.71,0.313-1.313,0.258c-0.455-0.042-0.82-0.086-1.041-0.242
		c-0.26-0.169-0.281-0.452-0.23-1.021l0.388-4.246c0.086-0.946,0.255-1.072,1.034-1.072h0.02l0.006-0.074l-2.649-0.242l-0.008,0.075
		c0.841,0.161,0.927,0.32,0.842,1.245l-0.389,4.279c-0.083,0.913-0.221,1.079-1.073,1.08c-0.011,0-0.023-0.001-0.036-0.001
		L53.617,91.189z M83.067,91.715l-0.057-0.552l0.116-0.02c0.889-0.148,0.92-0.186,0.837-1.023l-0.138-1.39
		c-0.02-0.194-0.058-0.276-0.258-0.554c-0.496-0.724-0.969-1.395-1.584-2.246c-0.492-0.675-0.602-0.745-1.185-0.745h-0.113
		l-0.055-0.551l2.921-0.291l0.054,0.544L83.5,84.913c-0.434,0.107-0.519,0.175-0.532,0.207c-0.015,0.038,0.082,0.181,0.128,0.251
		c0.469,0.71,0.985,1.433,1.484,2.133l0.045,0.062l0.109-0.264c0.282-0.669,0.631-1.502,0.811-2.049
		c0.037-0.108,0.112-0.33,0.071-0.388c-0.06-0.086-0.473-0.093-0.65-0.096l-0.111-0.002L84.8,84.218l2.652-0.263l0.055,0.548
		l-0.109,0.023c-0.678,0.149-0.781,0.266-1.112,0.922c-0.413,0.845-0.699,1.455-1.113,2.444c-0.102,0.271-0.119,0.386-0.094,0.648
		l0.146,1.453c0.083,0.845,0.11,0.871,1.044,0.838l0.117-0.004l0.054,0.554L83.067,91.715z M83.283,91.37l0.007,0.072l2.876-0.285
		l-0.007-0.073c-0.055,0.002-0.108,0.002-0.159,0.002c-0.809,0-0.936-0.181-1.023-1.069l-0.146-1.453
		c-0.03-0.303-0.008-0.452,0.11-0.764c0.417-1,0.706-1.613,1.122-2.462c0.342-0.682,0.495-0.869,1.172-1.032l-0.007-0.078
		l-2.155,0.215l0.008,0.078c0.414,0.012,0.635,0.051,0.74,0.2c0.106,0.15,0.048,0.357-0.039,0.611
		c-0.182,0.555-0.534,1.393-0.817,2.067l-0.282,0.678l-0.306-0.428c-0.501-0.701-1.019-1.427-1.49-2.14
		c-0.11-0.166-0.213-0.322-0.152-0.48c0.055-0.141,0.21-0.229,0.6-0.332l-0.009-0.08l-2.423,0.242l0.008,0.078
		c0.612,0.017,0.794,0.187,1.275,0.847c0.608,0.842,1.097,1.535,1.587,2.249c0.209,0.292,0.274,0.416,0.3,0.672l0.138,1.389
		C84.305,91.025,84.191,91.207,83.283,91.37 M46.154,90.316c-0.391,0-0.807-0.036-1.246-0.107L42.22,89.77l0.09-0.546l0.116,0.011
		c0.862,0.077,0.892,0.056,1.027-0.772l0.695-4.253c0.136-0.84,0.107-0.847-0.637-1.031l-0.112-0.027l0.092-0.556l3.157,0.516
		c1.423,0.231,2.393,0.709,2.963,1.461c0.514,0.683,0.712,1.582,0.558,2.53c-0.203,1.248-0.841,2.192-1.844,2.728
		C47.717,90.154,46.989,90.316,46.154,90.316 M42.507,89.563l2.442,0.4c1.319,0.213,2.414,0.096,3.259-0.353
		c0.931-0.498,1.525-1.379,1.715-2.548c0.143-0.879-0.039-1.71-0.511-2.339c-0.529-0.697-1.447-1.144-2.805-1.365l-2.911-0.475
		l-0.012,0.082c0.78,0.205,0.857,0.378,0.71,1.286l-0.695,4.254c-0.15,0.92-0.291,1.058-1.18,0.989L42.507,89.563z M46.073,89.937
		c-0.186,0-0.379-0.016-0.576-0.049c-0.748-0.122-1.181-0.388-1.026-1.335l0.718-4.402c0.069-0.426,0.142-0.591,0.303-0.677
		c0.172-0.083,0.486-0.091,0.913-0.018c0.763,0.124,1.364,0.395,1.784,0.806c0.715,0.624,1.005,1.625,0.811,2.814
		c-0.151,0.933-0.537,1.695-1.114,2.202C47.39,89.713,46.771,89.937,46.073,89.937 M45.887,83.657c-0.141,0-0.234,0.016-0.281,0.04
		c-0.048,0.025-0.105,0.087-0.171,0.495l-0.718,4.401c-0.111,0.691,0.072,0.926,0.821,1.049c0.857,0.138,1.612-0.051,2.183-0.552
		c0.533-0.467,0.89-1.178,1.033-2.055c0.18-1.1-0.082-2.02-0.735-2.59c-0.388-0.379-0.943-0.627-1.655-0.743
		C46.168,83.67,46.009,83.657,45.887,83.657 M96.866,89.846l-0.11-0.544l0.111-0.031c0.825-0.235,0.851-0.276,0.679-1.099
		l-0.879-4.204c-0.177-0.836-0.207-0.832-1.011-0.733l-0.113,0.014l-0.114-0.542l3.094-0.647l0.115,0.542l-0.112,0.032
		c-0.76,0.221-0.806,0.235-0.63,1.077l0.873,4.173c0.118,0.566,0.203,0.679,0.348,0.72c0.199,0.067,0.544,0.004,0.943-0.078
		c0.518-0.108,0.849-0.226,1.011-0.511c0.152-0.26,0.258-0.635,0.317-1.117l0.013-0.112l0.577,0.009l0.003,0.12
		c0.008,0.357,0.001,1.426-0.029,1.777l-0.008,0.093l-0.091,0.018L96.866,89.846z M97.047,89.479l0.015,0.07l4.647-0.97
		c0.021-0.366,0.027-1.15,0.024-1.538l-0.112-0.001c-0.065,0.463-0.177,0.833-0.334,1.1c-0.207,0.365-0.589,0.508-1.177,0.63
		c-0.45,0.093-0.813,0.158-1.067,0.072c-0.297-0.083-0.404-0.358-0.518-0.907l-0.874-4.174c-0.196-0.938-0.068-1.103,0.694-1.334
		l-0.016-0.072L95.726,82.9l0.014,0.073c0.854-0.089,0.98,0.033,1.171,0.945l0.879,4.204C97.981,89.033,97.893,89.225,97.047,89.479
		 M73.829,88.805l-0.094-2.785c-0.009-0.274,0.01-0.455,0.135-0.566c0.123-0.098,0.333-0.149,0.649-0.159
		c0.023-0.001,0.047-0.001,0.07-0.001c0.777,0,1.596,0.435,1.638,1.67c0.02,0.633-0.161,1.094-0.573,1.449
		c-0.28,0.239-0.657,0.354-1.223,0.373L73.829,88.805z M74.59,85.544c-0.023,0-0.043,0-0.064,0.001
		c-0.335,0.011-0.455,0.067-0.496,0.099c-0.037,0.034-0.052,0.149-0.045,0.368l0.086,2.535l0.352-0.011
		c0.505-0.017,0.835-0.114,1.068-0.313c0.349-0.301,0.503-0.699,0.486-1.251C75.934,85.704,75.038,85.544,74.59,85.544
		 M35.604,88.068c-0.538,0-1.119-0.078-1.741-0.235l-2.643-0.666l0.138-0.538l0.115,0.02c0.85,0.153,0.884,0.135,1.09-0.68
		l1.053-4.178c0.208-0.827,0.18-0.836-0.547-1.082l-0.109-0.038l0.138-0.546l3.102,0.781c1.422,0.358,2.322,0.902,2.831,1.711
		c0.454,0.725,0.575,1.638,0.34,2.568c-0.308,1.229-1.024,2.114-2.07,2.563C36.799,87.962,36.231,88.068,35.604,88.068
		 M31.525,86.985l2.399,0.605c1.295,0.327,2.396,0.303,3.279-0.073c0.971-0.415,1.637-1.243,1.926-2.392
		c0.218-0.866,0.108-1.708-0.31-2.375c-0.472-0.75-1.324-1.26-2.679-1.602l-2.861-0.721l-0.02,0.082
		c0.762,0.271,0.824,0.451,0.599,1.342l-1.053,4.179c-0.229,0.906-0.381,1.032-1.262,0.885L31.525,86.985z M35.315,87.672
		c-0.27,0-0.549-0.036-0.836-0.108c-0.737-0.185-1.146-0.487-0.912-1.419l1.091-4.325c0.105-0.421,0.193-0.578,0.361-0.649
		c0.179-0.069,0.494-0.046,0.912,0.058c0.75,0.19,1.325,0.512,1.708,0.957c0.66,0.684,0.864,1.706,0.569,2.873
		c-0.231,0.918-0.68,1.645-1.298,2.1C36.447,87.5,35.906,87.672,35.315,87.672 M35.279,81.381c-0.077,0-0.132,0.008-0.168,0.022
		c-0.059,0.025-0.121,0.117-0.211,0.477l-1.09,4.326c-0.171,0.679-0.008,0.93,0.729,1.116c0.846,0.214,1.611,0.087,2.223-0.364
		c0.571-0.421,0.987-1.099,1.204-1.959c0.272-1.08,0.091-2.02-0.512-2.645c-0.353-0.411-0.885-0.706-1.584-0.883
		C35.608,81.406,35.412,81.381,35.279,81.381 M106.559,87.63l-0.149-0.537l0.11-0.039c0.869-0.309,0.874-0.374,0.66-1.136
		l-1.408-4.976l-0.475,0.134c-0.884,0.25-0.982,0.39-1.031,0.577c-0.069,0.192-0.089,0.501-0.072,1.01l0.003,0.097l-0.544,0.155
		l-0.028-0.13c-0.055-0.25-0.107-0.509-0.159-0.764c-0.087-0.425-0.169-0.826-0.254-1.178l-0.028-0.117l0.401-0.112l0.051,0.049
		c0.163,0.152,0.246,0.149,0.527,0.069l4.138-1.171c0.241-0.068,0.29-0.13,0.378-0.339l0.023-0.055l0.406-0.117l0.035,0.121
		c0.134,0.474,0.414,1.259,0.631,1.836l0.043,0.116l-0.52,0.206l-0.053-0.098c-0.246-0.453-0.418-0.69-0.591-0.818
		c-0.198-0.148-0.351-0.188-1.094,0.022l-0.568,0.161l1.408,4.976c0.216,0.763,0.254,0.813,1.201,0.612l0.115-0.024l0.15,0.533
		L106.559,87.63z M106.713,87.251l0.02,0.07l2.824-0.8l-0.02-0.068c-0.941,0.19-1.132,0.061-1.379-0.813l-1.475-5.216l0.807-0.229
		c0.743-0.21,1.012-0.206,1.312,0.017c0.193,0.143,0.368,0.372,0.608,0.802l0.086-0.034c-0.193-0.519-0.423-1.169-0.558-1.621
		l-0.053,0.015c-0.102,0.226-0.21,0.34-0.516,0.427l-4.137,1.171c-0.28,0.079-0.475,0.115-0.712-0.08l-0.037,0.01
		c0.076,0.327,0.15,0.688,0.227,1.068c0.044,0.211,0.087,0.423,0.131,0.631l0.101-0.028c-0.013-0.49,0.012-0.79,0.084-0.994
		c0.09-0.34,0.35-0.502,1.203-0.743l0.714-0.203l1.477,5.216C107.665,86.722,107.576,86.931,106.713,87.251 M27.63,86.089
		l-2.817-1.001l0.184-0.518l0.108,0.023c0.239,0.052,0.496,0.097,0.571,0.037c0.041-0.031,0.06-0.122,0.065-0.294
		c0.013-0.357,0.01-0.82,0.006-1.356l-0.001-0.239l-1.975-0.703c-0.253,0.313-0.542,0.676-0.826,1.05
		c-0.164,0.212-0.268,0.372-0.246,0.465c0.026,0.108,0.238,0.228,0.546,0.377l0.102,0.048L23.162,84.5l-2.468-0.88l0.183-0.517
		l0.106,0.023c0.654,0.135,0.764,0.125,1.412-0.611l4.036-4.622l0.57,0.036l0.007,1.772c0.005,1.492,0.01,3.031,0.027,4.481v0.001
		c0.004,0.951,0.089,1.054,0.678,1.339l0.101,0.049L27.63,86.089z M25.133,84.935l2.345,0.834l0.025-0.072
		c-0.61-0.312-0.714-0.558-0.718-1.513c-0.017-1.451-0.022-2.989-0.027-4.482l-0.006-1.538l-0.214-0.013l-3.956,4.529
		c-0.671,0.764-0.891,0.841-1.542,0.711l-0.027,0.076l1.997,0.712l0.026-0.073c-0.347-0.173-0.535-0.306-0.58-0.495
		c-0.046-0.192,0.068-0.386,0.291-0.675c0.306-0.403,0.618-0.795,0.884-1.124l0.056-0.069l2.307,0.822l0.003,0.414
		c0.004,0.538,0.007,1.003-0.006,1.365c-0.006,0.219-0.036,0.385-0.161,0.483c-0.137,0.107-0.347,0.098-0.671,0.033L25.133,84.935z
		 M114.924,85.113l-0.202-0.518l0.105-0.049c0.785-0.371,0.8-0.404,0.496-1.186l-1.559-4.018c-0.309-0.794-0.336-0.784-1.073-0.564
		l-0.111,0.034l-0.202-0.529l2.98-1.157c1.349-0.524,2.426-0.603,3.297-0.245c0.791,0.33,1.418,1.002,1.766,1.897
		c0.457,1.179,0.387,2.315-0.205,3.287c-0.531,0.865-1.458,1.559-2.754,2.061L114.924,85.113z M115.04,84.721l0.026,0.068
		l2.306-0.896c1.244-0.482,2.129-1.141,2.631-1.959c0.549-0.901,0.613-1.962,0.186-3.066c-0.324-0.829-0.902-1.453-1.629-1.756
		c-0.81-0.333-1.828-0.25-3.112,0.246l-2.748,1.067l0.031,0.081c0.776-0.223,0.93-0.113,1.265,0.747l1.56,4.017
		C115.894,84.14,115.844,84.331,115.04,84.721 M117.134,83.71c-0.371,0-0.665-0.208-0.891-0.789l-1.613-4.16
		c-0.155-0.399-0.176-0.577-0.085-0.733c0.11-0.162,0.378-0.327,0.781-0.482c0.724-0.281,1.377-0.352,1.946-0.209
		c0.934,0.173,1.692,0.889,2.127,2.013c0.735,1.891,0.111,3.54-1.591,4.201C117.559,83.648,117.335,83.71,117.134,83.71
		 M116.671,77.516c-0.385,0-0.805,0.088-1.255,0.262c-0.4,0.155-0.602,0.3-0.659,0.383c-0.025,0.045-0.043,0.127,0.105,0.511
		l1.614,4.159c0.256,0.653,0.534,0.763,1.242,0.488c1.892-0.736,1.989-2.486,1.448-3.879c-0.402-1.04-1.095-1.701-1.947-1.859
		C117.045,77.538,116.862,77.516,116.671,77.516 M25.999,82.327l-2.158-0.77l0.115-0.137c0.263-0.315,0.528-0.635,0.795-0.957
		c0.342-0.414,0.687-0.83,1.032-1.241l0.054-0.064l0.199,0.062L25.999,82.327z M24.263,81.442l1.49,0.531l0.028-2.36
		c-0.28,0.335-0.559,0.673-0.838,1.009C24.715,80.897,24.488,81.171,24.263,81.442 M16.074,81.486c-0.413,0-0.852-0.099-1.289-0.303
		c-0.341-0.16-0.652-0.368-0.925-0.619c-0.178-0.162-0.288-0.293-0.368-0.39l-0.089-0.103l0.005-0.053
		c0.026-0.287,0.316-1.25,0.466-1.702l0.034-0.104l0.571,0.108l-0.023,0.123c-0.076,0.402-0.242,1.753,0.79,2.236
		c0.319,0.15,0.628,0.177,0.892,0.079c0.262-0.096,0.479-0.313,0.627-0.627c0.278-0.594,0.027-1.107-0.568-1.902
		c-0.51-0.668-1.283-1.679-0.742-2.836c0.241-0.513,0.67-0.889,1.208-1.057c0.569-0.177,1.208-0.113,1.847,0.187
		c0.478,0.223,0.848,0.537,1.178,0.843l0.059,0.055l-0.026,0.077c-0.071,0.211-0.143,0.438-0.23,0.715
		c-0.065,0.209-0.139,0.448-0.23,0.73l-0.036,0.111l-0.547-0.135l0.018-0.114c0.118-0.724,0.124-1.442-0.609-1.787
		c-0.301-0.141-0.595-0.157-0.854-0.046c-0.232,0.098-0.425,0.292-0.543,0.545c-0.289,0.613-0.048,1.093,0.564,1.875
		c0.599,0.763,1.344,1.711,0.794,2.884C17.682,81.058,16.937,81.486,16.074,81.486 M13.663,79.99l0.021,0.024
		c0.075,0.091,0.178,0.214,0.345,0.366c0.255,0.234,0.544,0.428,0.862,0.577c1.218,0.571,2.45,0.239,2.93-0.786
		c0.45-0.958-0.056-1.723-0.764-2.624c-0.546-0.699-0.967-1.341-0.594-2.135c0.145-0.31,0.384-0.548,0.672-0.67
		c0.324-0.138,0.691-0.122,1.057,0.05c0.844,0.396,0.876,1.189,0.768,1.939l0.099,0.024c0.074-0.233,0.137-0.435,0.194-0.617
		c0.077-0.246,0.142-0.453,0.205-0.643c-0.28-0.259-0.615-0.541-1.054-0.745c-0.582-0.274-1.161-0.333-1.667-0.175
		c-0.469,0.146-0.844,0.474-1.055,0.924c-0.478,1.02,0.212,1.922,0.715,2.579c0.54,0.722,0.958,1.383,0.594,2.159
		c-0.175,0.375-0.441,0.636-0.766,0.756c-0.329,0.121-0.703,0.092-1.085-0.087c-1.102-0.516-1.033-1.833-0.95-2.387l-0.113-0.02
		C13.915,78.998,13.706,79.719,13.663,79.99 M125.878,80.559c-0.281,0-0.538-0.163-0.681-0.452c-0.197-0.401-0.05-0.849,0.34-1.042
		c0.394-0.191,0.835-0.032,1.032,0.37c0.1,0.203,0.119,0.42,0.053,0.611c-0.063,0.184-0.203,0.336-0.392,0.428
		C126.112,80.532,125.993,80.559,125.878,80.559 M125.879,79.234c-0.076,0-0.155,0.019-0.231,0.056
		c-0.268,0.131-0.363,0.429-0.226,0.708c0.142,0.286,0.419,0.389,0.687,0.258c0.143-0.07,0.235-0.168,0.277-0.292
		c0.045-0.128,0.03-0.274-0.041-0.419C126.247,79.346,126.07,79.234,125.879,79.234"/>
</g>
</svg>
